<?xml version="1.0" encoding="utf-8"?>
<!-- Generator: Adobe Illustrator 19.0.0, SVG Export Plug-In . SVG Version: 6.00 Build 0)  -->
<svg version="1.1" id="Layer_1" xmlns="http://www.w3.org/2000/svg" xmlns:xlink="http://www.w3.org/1999/xlink" x="0px" y="0px"
	 viewBox="-651 657.4 196.9 186.6" style="enable-background:new -651 657.4 196.9 186.6;" xml:space="preserve">
<style type="text/css">
	.st0{fill:#FFFFFF;}
	.st1{fill:#5B94FC;}
</style>
<path id="XMLID_2_" class="st0" d="M-503.1,844H-602c-27,0-49-22.1-49-49v-88.6c0-27,22.1-49,49-49h98.9c27,0,49,22.1,49,49V795
	C-454.1,822-476.1,844-503.1,844z"/>
<path id="XMLID_10_" class="st1" d="M-506.8,838h-91.5c-25.5,0-46.4-20.9-46.4-46.4v-81.8c0-25.5,20.9-46.4,46.4-46.4h91.4
	c25.5,0,46.4,20.9,46.4,46.4v81.8C-460.5,817.1-481.3,838-506.8,838z"/>
<polygon id="XMLID_8_" class="st0" points="-512.8,800.2 -525.6,809.3 -520.9,794.3 -533.5,785 -517.8,784.8 -512.8,769.9 
	-507.8,784.8 -492,785 -504.7,794.3 -500,809.3 "/>
<g id="XMLID_92_">
	<path id="XMLID_93_" class="st0" d="M-619.5,697.6h12.1v2.7h-9v7.1h7.7v2.7h-7.7v9.4h-3.1C-619.5,719.5-619.5,697.6-619.5,697.6z"
		/>
	<path id="XMLID_95_" class="st0" d="M-596.1,709.7h0.7v-0.3c0-2.6-1.5-3.4-3.4-3.4c-2.4,0-4.4,1.5-4.4,1.5l-1.2-2.2
		c0,0,2.3-1.9,5.9-1.9c4,0,6.2,2.2,6.2,6.1v9.9h-2.8v-1.5c0-0.7,0.1-1.2,0.1-1.2h-0.1c0,0-1.3,3.1-5,3.1c-2.7,0-5.3-1.6-5.3-4.8
		C-605.6,709.9-598.8,709.7-596.1,709.7z M-599.6,717.4c2.5,0,4.2-2.7,4.2-5v-0.5h-0.8c-2.3,0-6.4,0.2-6.4,3
		C-602.6,716.2-601.6,717.4-599.6,717.4z"/>
	<path id="XMLID_98_" class="st0" d="M-580.7,703.4c3.9,0,5.9,2.3,5.9,2.3l-1.4,2.1c0,0-1.7-1.8-4.3-1.8c-3.2,0-5.5,2.4-5.5,5.6
		s2.3,5.6,5.5,5.6c2.9,0,4.8-2.1,4.8-2.1l1.2,2.2c0,0-2.2,2.5-6.3,2.5c-4.9,0-8.4-3.5-8.4-8.2C-589.1,707-585.6,703.4-580.7,703.4z"
		/>
	<path id="XMLID_100_" class="st0" d="M-564.2,703.4c4.4,0,6.8,3.3,6.8,7.3c0,0.4-0.1,1.3-0.1,1.3H-569c0.2,3.4,2.6,5.2,5.4,5.2
		c2.7,0,4.7-1.8,4.7-1.8l1.2,2.2c0,0-2.3,2.2-6.1,2.2c-4.9,0-8.3-3.6-8.3-8.2C-572.1,706.6-568.7,703.4-564.2,703.4z M-560.5,709.8
		c-0.1-2.7-1.8-4-3.8-4c-2.3,0-4.2,1.4-4.6,4H-560.5z"/>
	<path id="XMLID_103_" class="st0" d="M-553.8,697.6h3v7.2c0,0.8-0.1,1.3-0.1,1.3h0.1c0,0,1.3-2.7,5-2.7c4.2,0,6.9,3.3,6.9,8.2
		c0,5-3,8.2-7.1,8.2c-3.5,0-4.9-2.7-4.9-2.7h-0.1c0,0,0.1,0.5,0.1,1.2v1.1h-2.9V697.6z M-546.4,717.3c2.5,0,4.5-2,4.5-5.6
		c0-3.4-1.8-5.6-4.4-5.6c-2.4,0-4.5,1.6-4.5,5.6C-550.9,714.5-549.4,717.3-546.4,717.3z"/>
	<path id="XMLID_106_" class="st0" d="M-527.9,703.4c4.7,0,8.5,3.4,8.5,8.2s-3.8,8.2-8.5,8.2c-4.7,0-8.5-3.5-8.5-8.2
		C-536.3,706.8-532.6,703.4-527.9,703.4z M-527.9,717.2c3,0,5.4-2.4,5.4-5.6c0-3.3-2.4-5.6-5.4-5.6c-2.9,0-5.4,2.3-5.4,5.6
		S-530.8,717.2-527.9,717.2z"/>
	<path id="XMLID_109_" class="st0" d="M-508.5,703.4c4.7,0,8.5,3.4,8.5,8.2s-3.8,8.2-8.5,8.2s-8.5-3.4-8.5-8.2
		S-513.2,703.4-508.5,703.4z M-508.5,717.2c3,0,5.4-2.4,5.4-5.6c0-3.3-2.4-5.6-5.4-5.6c-2.9,0-5.4,2.3-5.4,5.6
		S-511.5,717.2-508.5,717.2z"/>
	<path id="XMLID_112_" class="st0" d="M-496.5,697.6h3v12h2.2l4.3-5.8h3.4l-5.2,6.9v0.1l5.8,8.7h-3.5l-4.7-7.4h-2.3v7.4h-3V697.6z"
		/>
	<path id="XMLID_114_" class="st0" d="M-618.7,732.1h4.5v5.9c0,0.7-0.1,1.1-0.1,1.1h0.1c0.8-1.3,2.3-2.1,4.1-2.1
		c2.7,0,4.8,1.2,4.8,5v8.7h-4.5v-7.9c0-1.2-0.5-1.8-1.5-1.8c-2,0-2.9,1.5-2.9,3.6v6h-4.5C-618.7,750.6-618.7,732.1-618.7,732.1z"/>
	<path id="XMLID_116_" class="st0" d="M-595.5,737c4.2,0,7.6,2.8,7.6,7.1c0,4.2-3.4,7-7.6,7s-7.6-2.8-7.6-7
		C-603.1,739.8-599.7,737-595.5,737z M-595.5,747.3c1.6,0,3-1.2,3-3.2s-1.4-3.3-3-3.3s-3,1.3-3,3.3
		C-598.6,746.1-597.2,747.3-595.5,747.3z"/>
	<path id="XMLID_119_" class="st0" d="M-580.2,737c1.2,0,2.6,0.2,3.5,1.1h0.1c0,0,0-0.3,0-0.6v-5.4h4.5v18.6h-4.2v-0.9
		c0-0.4,0-0.8,0-0.8h-0.1c-0.8,1.3-2.3,2-3.9,2c-3.6,0-6-2.9-6-7C-586.3,739.8-583.8,737-580.2,737z M-579.2,747.3
		c1.4,0,2.6-1,2.6-3.3c0-1.6-0.9-3.2-2.6-3.2c-1.4,0-2.6,1.1-2.6,3.2C-581.8,746-580.7,747.3-579.2,747.3z"/>
	<path id="XMLID_122_" class="st0" d="M-569.1,737.3h4.3v1.2c0,0.4-0.1,0.8-0.1,0.8h0.1c0.6-1,1.9-2.3,4.3-2.3c2.7,0,4.8,1.2,4.8,5
		v8.7h-4.5v-7.9c0-1.2-0.5-1.8-1.5-1.8c-2,0-2.9,1.7-2.9,3.6v6.1h-4.5C-569.1,750.7-569.1,737.3-569.1,737.3z"/>
	<path id="XMLID_124_" class="st0" d="M-546,737c4.2,0,7.6,2.8,7.6,7.1c0,4.2-3.4,7-7.6,7s-7.6-2.8-7.6-7
		C-553.6,739.8-550.2,737-546,737z M-546,747.3c1.6,0,3-1.2,3-3.2s-1.4-3.3-3-3.3s-3,1.3-3,3.3S-547.6,747.3-546,747.3z"/>
	<path id="XMLID_127_" class="st0" d="M-529.4,737c1.9,0,4,0.6,5.3,2l-1.9,3c-0.8-0.8-2-1.3-3.2-1.3c-2.1,0-3.2,1.6-3.2,3.2
		s1.1,3.3,3.4,3.3c1.3,0,2.7-0.8,3.7-1.6l1.6,3.2c-1.3,1.4-3.5,2.2-5.8,2.2c-4.8,0-7.5-3.3-7.5-7C-536.9,740.4-534.2,737-529.4,737z
		"/>
	<path id="XMLID_129_" class="st0" d="M-515.8,737c4,0,6.2,2.8,6.2,6.5c0,0.5-0.1,0.9-0.1,1.4h-8.5c0.3,1.6,1.7,2.4,3.1,2.4
		c1.3,0,2.6-0.6,3.7-1.4l1.7,3.2c-1.5,1.3-3.7,2-5.7,2c-4.8,0-7.4-3.5-7.4-7C-522.8,740.1-520.1,737-515.8,737z M-514,742.3
		c0-1.1-0.7-2-1.8-2c-1.3,0-1.9,0.9-2.2,2H-514z"/>
	<path id="XMLID_132_" class="st0" d="M-507.2,737.3h4.3v1.2c0,0.4-0.1,0.8-0.1,0.8h0.1c0.6-1,1.9-2.3,4.3-2.3c2.7,0,4.8,1.2,4.8,5
		v8.7h-4.5v-7.9c0-1.2-0.5-1.8-1.5-1.8c-2,0-2.9,1.7-2.9,3.6v6.1h-4.5L-507.2,737.3L-507.2,737.3z"/>
	<path id="XMLID_134_" class="st0" d="M-490.9,737.3h4.5v13.4h-4.5V737.3z M-488.4,732.1h4.5l-3.1,3.9h-3.5L-488.4,732.1z"/>
</g>
<g>
	<path class="st0" d="M-585.8,776.2h-5.9l-0.1,0.2c-4.3,6.3-10.4,15.8-14.2,22.5l-0.1,0.1v3.7h15.9v7h4.4v-7h4.4v-4.2h-4.4V776.2z
		 M-601.1,798.6c2.9-5,7.4-12.1,10.8-17.1v17.1H-601.1z"/>
	<polygon class="st0" points="-580.2,815.3 -576.7,815.3 -572.2,804.9 -577.2,804.9 	"/>
	<path class="st0" d="M-550.5,792c2.1-1.1,4.5-3.4,4.5-7.4c0-5.3-4.4-9.2-10.5-9.2c-6.1,0-10.5,3.9-10.5,9.2c0,4,2.4,6.3,4.5,7.4
		c-2.6,1-5.8,3.6-5.8,8.4c0,5.9,4.8,10,11.7,10c6.9,0,11.9-4.2,11.9-10.1C-544.7,795.6-547.9,793-550.5,792z M-556.4,779.6
		c3.6,0,6,2.1,6,5.2c0,3.2-2.5,5.4-6,5.4c-3.5,0-6.1-2.3-6.1-5.4C-562.5,781.8-560,779.6-556.4,779.6z M-556.4,806.4
		c-4.3,0-7.3-2.6-7.3-6.1c0-3.5,3.1-6.1,7.3-6.1c4.2,0,7.3,2.6,7.3,6.1C-549.1,803.9-552.2,806.4-556.4,806.4z"/>
</g>
</svg>
