<?xml version="1.0" encoding="utf-8"?>
<!-- Generator: Adobe Illustrator 19.0.0, SVG Export Plug-In . SVG Version: 6.00 Build 0)  -->
<svg version="1.1" id="Layer_1" xmlns="http://www.w3.org/2000/svg" xmlns:xlink="http://www.w3.org/1999/xlink" x="0px" y="0px"
	 viewBox="0 0 141.7 33.3" style="enable-background:new 0 0 141.7 33.3;" xml:space="preserve">
<style type="text/css">
	.st0{fill:#AC1E22;}
</style>
<g id="XMLID_53_">
	<path id="XMLID_65_" class="st0" d="M0.2,29.3c0-11.9,13.9-14,13.9-18.6c0-2.3-1.8-3.2-3.5-3.2c-2.1,0-3.8,1.6-4.8,3.4L0,6.9
		C1.9,3.3,5.5,0,11.3,0c5.3,0,11,3,11,9.9c0,10-13,12-13.4,16.1h13.9v6.8H0.5C0.3,31.5,0.2,30.3,0.2,29.3z"/>
	<path id="XMLID_62_" class="st0" d="M27.2,16.6c0-9.2,3-16.6,12.1-16.6s12.1,7.3,12.1,16.6c0,9.2-3,16.7-12.1,16.7
		S27.2,25.8,27.2,16.6z M43.4,16.6c0-5.2-0.9-9.4-4-9.4c-3.1,0-4,4.1-4,9.4c0,5.3,0.9,9.5,4,9.5C42.5,26.1,43.4,21.8,43.4,16.6z"/>
	<path id="XMLID_59_" class="st0" d="M55.9,16.6C55.9,7.3,58.8,0,68,0s12.1,7.3,12.1,16.6c0,9.2-3,16.7-12.1,16.7
		S55.9,25.8,55.9,16.6z M72,16.6c0-5.2-0.9-9.4-4-9.4c-3.1,0-4,4.1-4,9.4c0,5.3,0.9,9.5,4,9.5C71.1,26.1,72,21.8,72,16.6z"/>
	<path id="XMLID_57_" class="st0" d="M92,0.5h7.9V13h3.2l6.7-12.4h8.5l-8.7,15.4V16l9.2,16.7h-8.8l-6.8-13.1h-3.2v13.1H92V0.5z"/>
	<path id="XMLID_54_" class="st0" d="M131.8,9c3.2,0,6.9,1,9.2,3.5l-3.3,5.2c-1.4-1.3-3.4-2.3-5.4-2.3c-3.7,0-5.5,2.8-5.5,5.5
		c0,2.7,1.9,5.8,5.8,5.8c2.3,0,4.7-1.4,6.3-2.8l2.8,5.4c-2.3,2.3-6.1,3.8-9.9,3.8c-8.3,0-12.9-5.8-12.9-12.2
		C118.9,14.9,123.5,9,131.8,9z M122.6,0.5h6.1l2.1,3.7h0.1l2.1-3.7h6.1l-4.5,6.8h-7.6L122.6,0.5z"/>
</g>
</svg>
