<?xml version="1.0" encoding="utf-8"?>
<!-- Generator: Adobe Illustrator 19.0.0, SVG Export Plug-In . SVG Version: 6.00 Build 0)  -->
<svg version="1.1" id="Layer_1" xmlns="http://www.w3.org/2000/svg" xmlns:xlink="http://www.w3.org/1999/xlink" x="0px" y="0px"
	 viewBox="0 0 30 30" style="enable-background:new 0 0 30 30;" xml:space="preserve">
<style type="text/css">
	.st0{fill:#FFFFFF;stroke:#000000;stroke-miterlimit:1;}
</style>
<polyline id="XMLID_3_" class="st0" points="15,0 15,15 0,15 "/>
<polyline id="XMLID_4_" class="st0" points="30,15 15,15 15,0 "/>
<polyline id="XMLID_6_" class="st0" points="0,15 15,15 15,30 "/>
<polyline id="XMLID_5_" class="st0" points="15,30 15,15 30,15 "/>
</svg>
